<svg id="like_off" data-name="like off" xmlns="http://www.w3.org/2000/svg" viewBox="0 0 32.483 28.558">
  <path id="Path_30" data-name="Path 30" d="M29.86,31.152a8.994,8.994,0,0,0-12.719.007l-.888.888-.9-.9a8.986,8.986,0,0,0-12.719-.014,8.986,8.986,0,0,0,.014,12.719L15.577,56.783a.923.923,0,0,0,1.308.007l12.96-12.912a9.011,9.011,0,0,0,.014-12.726ZM28.537,42.563,16.232,54.821,3.953,42.542A7.129,7.129,0,1,1,14.035,32.461l1.556,1.556a.927.927,0,0,0,1.315,0l1.543-1.543A7.134,7.134,0,0,1,28.537,42.563Z" transform="translate(0 -28.501)"/>
</svg>
