<svg xmlns="http://www.w3.org/2000/svg" viewBox="0 0 39.18 28.925">
  <defs>
    <style>
      .cls-1 {
        fill: #605f5f;
      }
    </style>
  </defs>
  <g id="report" transform="translate(0 -30.677)">
    <path id="Path_36" data-name="Path 36" class="cls-1" d="M45.139,30.677A14.462,14.462,0,1,0,59.6,45.14,14.479,14.479,0,0,0,45.139,30.677Zm0,26.418A11.955,11.955,0,1,1,57.095,45.14,11.969,11.969,0,0,1,45.139,57.095Z" transform="translate(-25.549)"/>
    <path id="Path_37" data-name="Path 37" class="cls-1" d="M7.5,34.233A1.254,1.254,0,1,0,5.732,32.46a19.622,19.622,0,0,0,0,27.718A1.254,1.254,0,0,0,7.5,58.405,17.112,17.112,0,0,1,7.5,34.233Z" transform="translate(0 -1.18)"/>
    <path id="Path_38" data-name="Path 38" class="cls-1" d="M189.455,32.46a1.254,1.254,0,1,0-1.773,1.773,17.111,17.111,0,0,1,0,24.172,1.254,1.254,0,0,0,1.773,1.773A19.622,19.622,0,0,0,189.455,32.46Z" transform="translate(-156.006 -1.18)"/>
    <path id="Path_39" data-name="Path 39" class="cls-1" d="M110.958,74.511a1.254,1.254,0,0,0,1.254-1.254V62.581a1.254,1.254,0,1,0-2.507,0V73.258A1.254,1.254,0,0,0,110.958,74.511Z" transform="translate(-91.367 -25.527)"/>
    <circle id="Ellipse_4" data-name="Ellipse 4" class="cls-1" cx="1.559" cy="1.559" r="1.559" transform="translate(18.031 50.107)"/>
  </g>
</svg>
